can I completely disable the keyboard using in And by completely disable I mean so even I did consider using a keyboard driver but I think you need to restart the computer after it is but since I only need to disable it for a couple minutes that really the keyboard in windows
followed a great tutorial on using a UIImagePickerController to get images from the Photo Album or Camera on the The problem the tutorial is a bit dated and documentation cites a method used by the delegate as being depreciated since The problem the documentation failed to provide clues as to what to use in The deprecated method above method is used as is currently used in place of the deprecated to use in place of a deprecated UIImagePickerControllerDelegate
ant if want to execute more than one we can do it like target1 target2 way could create target4 the problem one of my target definition if i want to execute then it will run all associated targets as it possible to execute the target without executing it possible to exclude some targets from Ant targets while executing the
very new at MySQL and trying to execute some wait a certain period of time until they are uploaded and then check to ensure that the data from the commands is actually in the table so I can delete these there any sort of first way of executing these sort of A way of setting the maximum amount of time these commands take to By the way I am using and the OdbcCommand do you know when your mysql commands have been
some psudeo You could use javascript or jQuery to read the url in the link and figure out if pointing to a specific product the product number is in the parse that out and send a AJAX request to a page that will send page the path to the product image then display that with the search
have looked up the following article before making this post but my scenario is a little also have the patch applied to VS2008 and have jquery intellisense my the WCF service is actually not inside the web have a separate projects for and is a web project that is hosting the WCF web application is then consuming the WCF In my javascript file inside the web if I write the following two lines at the the intellisense is the IIS application hosting my WCF have even forced the javascript intellisense update in VS2008 by going to Edit menu and selecting that There are no errors being One other I actually created a test WCF service inside my web application itself and placed the following inside my javascript file and this my problem is how to get intellisense working when the WCF service is not inside the same application or when you are consuming an external service through intellisense in VS2008 external WCF
wrote a program who paints widget on desktop under desktop and all was I reveal a strange bug my program was not works on some other computers they same desktop without widget after have anybody any some knowledge in this help find any computers where widget not in my computer all works wrote a lot of test whose tries draw anything on desktop with rather test displays nothing too in my friends wrote a who finds desktop window creates a hook and install own window procedure for window procedure i hook HDC hdc return I skip in this code getting and setting clipping areas for fast tried all combinations with clipping and without in tests I also trying to paint widget in message with same results all already works at but works not at all my I solved under icons on
from the when you use a relational Why and what should you you learn hard you use a relational
the last There are a few nice options at is the most way to parse a flat table into a should also consider caching the result of the recursion in an intermediate If you change that only on update to your hierarchy the recursion performance hit will be I would do the recursion in the presentation layer of my for example on the web This provides greater flexibility compared to what can be achieved in and you can also use session or application level a DB table that is kept up to date with a trigger never leaves you with an outdated
a web Microsoft has a nice package installer like using before imaging a machine so that I can create multiple workstations with the same
can add a property to the Converter class and bind to
Why are you using the row in
am looking at refactoring some very complex code which is a subsystem of a project I have at Part of my examination of this code is that it is incredibly and contains a lot of intermediate values and outputs depending on some core business want to redesign this code to be easier to maintain as well as executing a hell of a lot so to start off with I have been trying to look at each of the parameters and their dependencies on each This has lead to quite a large and tangled graph and I would like a mechanism for simplifying this while back I came across a technique in a book about SOA design called Design which uses a matrix of outputs and the dependencies they have on the applies some form of matrix algebra and can generate Business Process diagrams for those know there is a web tool available at however it is limited in the number of dependencies you can I have tried looking around for the algorithmic source for this tool I could attempt to implement it myself without the size however I have had no anybody know a similar technique that I could Currently I am even considering taking the dependency matrix and applying some Genetic Algorithms to see if evolution can come up with a simpler will explain the original code was written for a system which computed all of the values every time the user performed an operation removing or modifying certain properties of a This code was written over ten years ago and is definitely showing signs of age others have added more complex calculations into the system and now we are getting completely unreasonable performance to 2 minutes before control is returned to the It has been decided to detach the calculations from the user actions and provide a button to the problem arises because there are so many calculations that are going on and they are based on the assumption that all of the required data will be available for their computation now when I try to the calculations I keep encountering problems because I got the result for a different calculation that this calculation relies is where I want to use the The MD approach allows me to specify all of the inputs and outputs and gives me the workflow that I can use for generating all of the can then use this to know the precedence of the calculations I need to perform to get the same result without generating any It also shows me which parts of the calculation system I can parallelise and where the fork and join points will be worry about that part just At the moment all I have is an insanely large matrix with lots of dependencies showing in with no idea where to will elaborate from my comment a little want to use the solution from the EA process in the actual I want to take the dependency matrix and decompose it into modules that I will then code manually this is purely a design aid I am just interested in what the for these modules will Basically a representation of the complex interdependencies between these as well as some idea of I have A requires B and D requires A and F requires A and I want to effectively partition the problem space from a complex set of dependencies into a that I can examine to get a better Once I have this understanding I can come up with a better design implementation that is still human so for the example I know I need to calculate then then then know this seems kind of if you take a look at the website I linked to before the matrix based decomposition there should give you some understanding of what I am thinking Design
URL mapping is and navigating to URL mappings have to match the Change the mapping to the in your is only catching the index so it never sends requests for to You either need to widen the pattern to be will send every request to or add multiple patterns to cover each URL you want Spring to your is a bit Do you actually need any of
running tests on an app I am working I use the
would all depend on how you coded your Whether or not a select can fail will be a matter of how performing your selects in your Did you sanitize data Because this is regarding MySQL and it brings in questions about your are many routes for potential This question really cannot be answered without first knowing how you set it all up to begin Others may include too many open queries lasting for too The are too many to list here you should return with more specific questions about how to avoid sanitize handle complicated The community here would be quick to offer quality responses
silverlight is cross there is no guarantee that the application will be able to create a separate assembly either permissions or capability wise on the executing
I give the answer but the simplest thing to do is to use the assuming doing C have to manually copy the characters I would probably use
need to implement both services in the same new class WcfEntryPoint I frequently use partial classes to make my host class code easier to partial class WcfEntryPoint IMyService1 partial class WcfEntryPoint IMyService2
the source open and CMD INSTALL
